﻿Field=Comment~String~Comment~100|Field=Description~String~Description~100|Field=Designator~String~Designator~100|Field=LibRef~String~LibRef~100|Field=Quantity~Integer~Quantity~100|Field=Distributor~String~Distributor~100|Field=Manufacturer~String~Manufacturer~100|Field=Manufacturer Code~String~Manufacturer Code~100|Field=Ordering Code~String~Ordering Code~100|Field=Value~String~Value~100|ReportField=Currency~<none>|ReportField=ProductionQuantity~1|ReportField=ProjectFileName~APR NextGen R003.PrjPcb|ReportField=ProjectFullPath~C:\Users\drgnc\Documents\Project Working\Sound-Wave\R003\APR NextGen R003.PrjPcb|ReportField=Title~BOM with Price For Project [APR NextGen R003.PrjPcb] (No PCB Document Selected)|ReportField=TotalQuantity~202|ReportField=ReportTime~12:56:47 PM|ReportField=ReportDate~3/26/2022|ReportField=ReportDateTime~3/26/2022 12:56:47 PM|ReportField=OutputName~BOM with Price|ReportField=OutputType~BOM_PartType|ReportField=GeneratorName~BOM|ReportField=GeneratorDescription~Bill of Materials|ReportField=VariantName~None|ReportField=Address1~Gunduliceva 19B|ReportField=Address2~Novi Sad|ReportField=Address3~SRB-21000|ReportField=Address4~|ReportField=Application_BuildNumber~|ReportField=ApprovedBy~|ReportField=Author~Dragan Cuca|ReportField=BrdCodeRev~|ReportField=CheckedBy~|ReportField=CompanyName~DragonHW|ReportField=ConfigurationParameters~|ReportField=ConfiguratorName~|ReportField=CurrentDate~3/26/2022|ReportField=CurrentTime~12:26:35 PM|ReportField=Date~3/26/2022|ReportField=DocumentFullPathAndName~C:\Users\drgnc\Documents\Project Working\Sound-Wave\R003\Top Level.SchDoc|ReportField=DocumentName~Top Level.SchDoc|ReportField=DocumentNumber~1|ReportField=DrawnBy~|ReportField=Engineer~|ReportField=ImagePath~|ReportField=IsUserConfigurable~|ReportField=ModifiedDate~3/26/2022|ReportField=Organization~|ReportField=ProjectName~APR NextGen R003.PrjPcb|ReportField=Revision~R001|ReportField=RTRKProjectName~|ReportField=Rule~|ReportField=SheetNumber~1|ReportField=SheetTotal~7|ReportField=SPICEModelCache~|ReportField=Time~|ReportField=Title~Top Level.SchDoc|ReportField=VersionControl_ProjFolderRevNumber~|ReportField=VersionControl_RevNumber~|ReportField=BoardName~|ReportField=Variant~<Master Design>|ReportField=DataSourceFileName~APR NextGen R003.PrjPcb|ReportField=DataSourceFullPath~C:\Users\drgnc\Documents\Project Working\Sound-Wave\R003\APR NextGen R003.PrjPcb
47u|47u 6V3 X5R 1206|C1, C7|47u 6V3 X5R 1206|2|Farnell|MURATA|GRM31CR60J476ME19L|1735534|47u
100n|100n 50V X7R 0402|C2, C5, C6, C12, C13, C15, C19, C21, C26, C27, C28, C29, C30, C31, C32, C33, C37, C38, C39, C40, C41, C42, C43, C44, C45, C46, C47, C48, C49, C50, C51, C52, C53, C59, C62|100n 50V X7R 0402|35|Mouser|Murata|GRM155R71H104KE14D|81-GRM155R71H104KE4D|100n
10u|10u 25V X7R 1206|C3, C4, C8, C16, C17, C18, C58|10u 25V X7R 1206|7|Digi-Key|KEMET|CL31A106MBHNNNE|1276-6736-1-ND|10u
1n|1n 50V X7R 0402|C9, C20, C22, C23, C54, C55, C63, C64, C65, C66, C67, C68, C69, C70|1n 50V X7R 0402|14|Mouser|Yageo|CC0402JRX7R9BB102|603-CC402JRX7R9BB102|1n
33p|33p 50V NPO 0603|C10|33p 50V NPO|1|Farnell|MULTICOMP|MC0603N330J500CT|1710221|33p
470n|470n 16V X7R 0603|C11|470n 16V X7R|1|Farnell|KEMET|C0603X474K4RACTU|1414037|470n
1u|1u 10V X5R 0402|C14, C34|1u 10V X5R 0402|2|Digi-Key|MULTICOMP|MCCA000506|587-3712-2-ND|1u
18p|18p 50V NP0 0402|C35, C36|18p 50V NP0 0402|2|Farnell|KEMET|C0402C180J5GACTU|1572614|18p
12p|12p 50V NP0 0402|C60, C61|12p 50V NP0 0402|2|Farnell|MULTICOMP|MCCA000093|1758943|12p
1n|1n 50V NP0 0402|C128|1n 50V NP0 0402|1|Farnell|MuRata|GRM1555C1H102JA01D|8819556|1n
DF40C-100DS-0.4V(51)|CN PLUG 100pos P0.4mm  SMD|CN1|Hirose_DF40C-100DP-0.4V(51)_RPI4|1|Digi-Key|Hirose Electric Co Ltd|DF40C-100DS-0.4V(51)|H11615CT-ND|DF40C-100DS-0.4V(51)
FPC 15pos|CON FPC 1mm R/A 15pos|CN2, CN4|Molex_0522711579|2|Digi-Key|Molex|0522711579|WM10967CT-ND|FPC 15pos
HDR2X20 V 2.54mmP|HDR 2X20 V 2.54mmP|CN3|HDR2X20 V 2.54mmP|1|Digi-Key|Amphenol ICC (FCI)|68691-440HLF|609-6379-ND|HDR2X20 V 2.54mmP
HDR 2pos 2mm|CON HDR 1X2 P=2mm Vert TH|CN5|Molex_55932-0230|1|Farnell|Molex|55932-0230|1120497|HDR 2pos 2mm
USB MICRO B|USB MICRO B RA SM|CN6|FCI_10103594-0001LF|1|Digi-Key|FCI|10103594-0001LF|609-4050-6-ND|USB MICRO B
HDR 2pos 2mm|HDR 1X2 P=2mm Vertical TH|CN7|JST_S2B-PH-K-S (LF)(SN)|1|Farnell|JST|S2B-PH-K-S (LF)(SN)|9491902|HDR 2pos 2mm
HDR 1X3 2mm|CON HDR 1X3 2mm Vertical TH|CN8|TE_440054-3|1|Digi-Key|TE Connectivity|440054-3|A100035-ND|HDR 1X3 2mm
HDR 1X4|CON HDR 1X4 2.54mm Vertical TH|CN9|MOLEX_0470531000|1|Digi-Key|Molex|0470531000|WM4330-ND|HDR 1X4
HDR 1X2 2mm|CON HDR 1X3 2mm Vertical TH|CN10, CN15|TE_440054-2|2|Digi-Key|TE Connectivity|440054-2|A100034-ND|HDR 1X2 2mm
HDR 2pos 3.96mm|CON HDR 1X2 P=3.96mm RA TH|CN11|TE Connectivity_647676-2|1|Digi-Key|TE Connectivity|647676-2|A114288-ND|HDR 2pos 3.96mm
MicroSD Socket|MicroSD Card Socket|CN12||1|Digi-Key|Molex|503398-1892|WM11190CT-ND|MicroSD Socket
USB-C 3.1|CON USB-C 3.1 SMD/TH|CN13|Wurth_632723100011|1|Digi-Key|Wurth|632723100011|732-9617-1-ND|USB-C 3.1
HDR 2pos 2mm|CON HDR 1X2 P=2mm Vert TH|CN14|HARWIN_M80-8520242|1|Farnell|Molex|M80-8520242|M80-8520242|HDR 2pos 2mm
HDR 1X4 2mm|CON HDR 1X4 2mm Vertical TH|CN16|TE_440054-4|1|Digi-Key|TE Connectivity|440054-4|A100036-ND|HDR 1X4 2mm
BAT Holder CR2032|CON Batt Holder Metal CR2032|CN21|Keystone_3003|1|Farnell|Keystone Electronics|3003|908654|BAT Holder CR2032
CON DC SOCKET 2.1MM PCB|CN DC SOCKET 2.1MM RA TH|CN23|CLIFF_DC10A|1|Farnell|CLIFF ELECTRONIC COMPONENTS|DC10A|224959 pakovanje od 10kom.|CON DC SOCKET 2.1MM PCB
Jumper|HDR1X2 V 2.54mmP|CN24|HDR1X2 V 2.54mmP|1|Digi-Key|Sullins|PREC040SAAN-RC|S1012EC-40-ND|Jumper
TPD4E001DRLR|TVS DIODE 5.5VWM SOT6|CR1, CR2|TPD4E001DRLR|2|Digi-Key|Texas Instruments|TPD4E001DRLR|296-21887-1-ND|TPD4E001DRLR
PMEG4010EJ|DI Schottky 40V 1A SOD-323|D1, D5, D6, D8, D9, D10|PMEG4010EJ,115|6|Digi-Key|NXP|PMEG4010EJ,115|1727-3881-1-ND|PMEG4010EJ
TPD4E05U06|ESD 4Ch 6V 40W Bidirectional 10-SON|D2, D3|TPD4E05U06QDQARQ1|2|Digi-Key|Texas Instruments|TPD4E05U06QDQARQ1|TPD4E05U06QDQARQ1|TPD4E05U06
BZV55-C5V1|DI Zener 5V1 500mW SOD80C|D4|BZV55-C5V1|1|Farnell|NXP|BZV55-C5V1|1097202|BZV55-C5V1
PMEG4010CEH|DI Schottky 40V 1A SOD-123 ultra low VF MEGA|D7|PMEG4010CEH|1|Farnell|NXP|PMEG4010CEH|1510690|PMEG4010CEH
120Z|FER 120Z 3A 3mR 0603|L1|FER 120Z 3A 3mR 0603|1|Farnell|muRata|BLM18KG121TN1D|1781089|120Z
2u2H 1.3A|IND 2u2 1.3A 80mR 2520|L2, L5|IND 2u2 1.3A 80mR 2520|2|Digi-Key|Bourns|CVH252009-2R2M|CVH252009-2R2MCT-ND|2u2H 1.3A
5u6H 3.5A|IND 5u6H 3.5A 51mR 4x4mm|L3|IND 5u6H 3.6A 32mR 8x8mm|1|Digi-Key|Murata|B1047AS-5R6N=P3|490-14216-1-ND|5u6H 3.5A
GREEN 0805|LED GREEN 20mA 2V 0805|LD1|HSMG-C170|1|Digi-Key|Broadcom|HSMG-C170|516-1434-2-ND|GREEN 0805
RED 0805|LED RED 20mA 2V 0805|LD2|TLRU1002A(T02)|1|Farnell|Toshiba|TLRU1002A(T02)|1141110|RED 0805
BSH103|MOSFET N-ch 0.85A 30V SOT23|Q1, Q2, Q4|BSH103,235|3|Digi-Key|NXP|BSH103,235|568-11607-2-ND|BSH103
BSH205|MOSFET P-Ch  750mA 12V SOT-23|Q3|BSH205|1|Farnell|NXP|BSH205|1081308|BSH205
10K|RES 10K 1% 0.063W 50V 0402|R1, R2, R7, R8, R12, R14, R15, R17, R23, R28, R29, R30, R32, R33, R34, R35, R36, R37, R39, R40, R41, R42, R46, R47, R48, R49, R50, R53, R54, R55, R56, R57, R58, R59, R60, R61, R62, R63, R64, R65, R69, R70, R71, R72, R74, R75, R76|10K 1% 0.063W 50V 0402|47|Farnell|MULTICOMP|MC 0.0625W 0402 1% 10K|1358069|10K
220R|RES 220R 1% 0.063W 0603|R3|220R 1% 0.063W|1|Farnell|MULTICOMP|MC 0.063W 0603 1% 220R|9330801|220R
68K|RES 68K 1% 0.1W 0603|R4|68K 1% 0.1W|1|Farnell|VISHAY DRALORIC|CRCW060368K0FKEA|1469832|68K
2K2|RES 2K2 1% 0.063W 0603|R5, R6|2K2 1% 0.063W|2|Farnell|MULTICOMP|MC 0.063W 0603 1% 2K2|9330810|2K2
45K3|RES 45K3 1% 0.1W 75V 0603|R9, R18, R19, R20, R21, R22|45K3 1% 0.1W 75V 0603|6|DigiKey|Yageo|AC0603FR-0745K3L|13-AC0603FR-0745K3LCT-ND|45K3
1K|RES 1K 1% 0.063W 0603|R10, R38, R43, R45|1K 1% 0.063W|4|Digi-Key|Yageo|AC0603FR-071KL|311-1KLDCT-ND|1K
7K5|RES 7K5 1% 0.063W 0603|R11|7K5 1% 0.063W|1|Digi-Key|Yageo|AC0603FR-077K5L|YAG3631CT-ND|7K5
53K|RES 53K% 0.063W 0603|R13|53K 1% 0.063W|1|Digi-Kay|RN731JTTD5302F25|KOA Speer Electronics, Inc.|2019-RN731JTTD5302F25TR-ND|53K
0R0|RES 0R0 1% 0.063W 0603|R16, R31|0R0 1% 0.063W|2|Farnell|MULTICOMP|MC 0.063W 0603 0R|9331662|0R0
22R|22R 1% 0.0625W 50V 0402|R24, R25, R26, R27|22R 1% 0.0625W 50V 0402|4|DigiKey|Yageo|MC 0.0625W 0402 1% 22R|311-22.0LRCT-ND|22R
910K|RES 910K 1% 0.063W 50V 0603|R44|680K 1% 0.063W 50V 0603|1|Digi-Key|Yageo|AC0603FR-07910KL|13-AC0603FR-07910KLCT-ND|910K
6R2 2W|6R2 5% 2W 500V 2512|R51|6R2 5% 2W 500V 2512|1|Digi-Key|Bourns Inc.|CRM2512-JW-6R2ELF|CRM2512-JW-6R2ELF-ND|6R2 2W
6K04|RES 6K04 1% 0.0625W 50V 0402|R52|6K04 1% 0.0625W 50V 0402|1|Digi-Key|Yageo|RT0603FRE076K04L|13-RT0603FRE076K04LCT-ND|6K04
300R|300R 1% 0.063W 50V 0402|R66, R67, R68|300R 1% 0.063W 50V 0402|3|Farnell|MULTICOMP|MC 0.0625W 0402 1% 300R|1358027|300R
100K|RES 100K 1% 0.063W 50V 0402|R73|100K 1% 0.063W 50V 0402|1|Farnell|MULTICOMP|MC 0.0625W 0402 1% 100K|1358096|100K
MCIPTG23K|2.8X4.6X1.9mm SMD MULTICOMP_MCIPTG23K-V|SW1, SW2|MULTICOMP_MCIPTG23K-V|2|Farnell|MULTICOMP|MCIPTG23K-V|1605470|MCIPTG23K
AP64501SP-13|IC BUCK Uni 4-40V Io=5A SOIC8|U1|AP64501SP-13|1|Digi-Key|Diodes INC|AP64501SP-13|31-AP64501SP-13CT-ND|AP64501SP-13
LM2831YMF/NOPB|IC BUCK Uni=0.6-5.5V Io=1.5A SOT23-5|U2|LM2831YMF/NOPB|1|Digi-Key|Texas Instruments|LM2831YMF/NOPB|LM2831YMF/NOPBCT-ND|LM2831YMF/NOPB
STM6601GU2BDM6F|IC Power ON/OFF control. 12DFN|U3|STM6601GU2BDM6F|1|Digi Key|STM|STM6601GU2BDM6F|497-14857-1-ND|STM6601GU2BDM6F
AP2111SG-13|IC USB SWITCH 2.45A CURRENT 8SOP|U4, U5|AP2111SG-13|2|DigiKey|Diodes Incorporated|AP2111SG-13|AP2111SG-13DICT-ND|AP2111SG-13
VL805|IC USB 3.0 HUB QFN68|U6|VL805|1|Digi Key|VIA Labs|VL805|VL805|VL805
W25X10CLSNIG|IC FLASH SPI 10Mbit 8-USON|U7||1|Mouser|Winbond|W25X10CLUXIG TR|454-W25X10CLUXIGTR|W25X10CLSNIG
TUSB322IRWBR|IC USB Interface 12-X2QFN|U8|TUSB322IRWBR|1|Digi-Key|Texas Instruments|TUSB322IRWBR|296-43704-1-ND|TUSB322IRWBR
TLV62566DBVR|IC BUCK 5V5 1.5A SOT23-5|U9|TLV62566DBVR|1|Digi-Key|Texas Instruments|TLV62566DBVR|296-46221-1-ND|TLV62566DBVR
PCF85063ATT/AJ|IC RTC/CALENDAR I2C 8TSSOP|U10|PCF85063ATT/AJ|1|Digi-Key|NXP|PCF85063ATT/AJ|568-12404-1-ND|PCF85063ATT/AJ
74LVC1G08GW|IC AND GATE 1.65V-5.5V SOT-353|U11|74LVC1G08GW|1|Digi-Key|NXP|74LVC1G08GW,165|2156-74LVC1G08GW165-ND|74LVC1G08GW
PCA9535BS,118|I/O EXPANDER I2C 16Bit 24HVQFN|U12|PCA9535BS,118|1|Digi-Key|NXP|PCA9535BS,118|568-3376-1-ND|PCA9535BS,118
EMC2301-1-ACZL-TR|IC FAN I2C Driver + Taho MSOP8|U13|EMC2301-1-ACZL-TR|1|Digi-Key|Microchip|EMC2301-1-ACZL-TR|EMC2301-1-ACZL-CT-ND|EMC2301-1-ACZL-TR
ADS1115IDGST|IC ADC 16bit 4ch 860SPS 10-VSSOP|U14|ADS1115IDGST|1|Digi-Key|TI|ADS1115IDGST|296-24934-1-ND|ADS1115IDGST
25MHz|CR  25MHz  ±30ppm 16pF 2mmx1.6mm|X1|25MHz ±30ppm 16pF|1|Digi-Key|Abracon LLC|ABM11-25.000MHZ-16-R150-D-T|535-14368-1-ND|25MHz
32.768KHz|CRY 32.768KHz 12.5pF -40°C +125°C 3.2x1.5mm|X2|32.768KHz 12.5pF|1|DigiKey|NDK|NX3215SA-32.768K-EXS00A-MU00003|644-1313-1-ND|32.768KHz
