M48
;Layer_Color=9474304
;FILE_FORMAT=2:5
INCH,LZ
;TYPE=PLATED
T1F00S00C0.02756
;TYPE=NON_PLATED
T2F00S00C0.08661
%
T01
X0384252Y0296063
X0391181
X039811Y0296
X0405039Y0296063
X0411969
X0418898
T02
X03785Y03065
X0426
M30
